verilog work "toplevel_tolerant.v"
verilog work "F_standalone.tolerant"
verilog work "../../verilog/amber23/rachelset.v"
verilog work "../../verilog/amber23/dualmem.v"
verilog work "../../verilog/amber23/i2c_control.v"
verilog work "../../verilog/amber23/fstore2.v"
verilog work "../../verilog/amber23/blockram256Kx32.v"
verilog work "../../verilog/amber23/mem_block.v"
verilog work "../../verilog/amber23/RAM256K.v"
verilog work "../../test4.mem.v"
verilog work "../../test4_a23.mem.v"
verilog work "/home/jrrk/regression/xilinx_verilog/hdlMacro/AND6.v"
